{
  "$schema": "http://json-schema.org/draft-07/schema#",
  "title": "GitLab data/team_members/person/**/*.yml",
  "description": "Team member file defined in YAML",
  "type": "object",
  "properties": {
    "work_priorities": {
      "type": "array",
      "items": {
        "enum": [
          "AI Framework",
          "AI Infrastructure",
          "Code Suggestions",
          "AI Chatbot",
          "Product Analytics",
          "Cells & Organizations",
          "Gitaly",
          "Dedicated",
          "Switchboard Automation",
          "Product Design",
          "Test Gap - Source Code",
          "Test Gap - Pipeline Security",
          "Test Gap - Pipeline Execution",
          "Test Gap - Package Registry",
          "Test Gap - Security Policies",
          "Infra - Disaster Recovery",
          "Infra - On Call",
          "Customer Support - Enterprise",
          "Customer Support - SMB",
          "Reference Architectures"
        ]
      }
    }
  }
}
